EDLD 610 Winter 2020 Final Project
…
## # A tibble: 6 x 9
##    Rank Major_code Major Major_category Total   Men Women ShareWomen Median
##   <int>      <int> <chr> <chr>          <int> <int> <int>      <dbl>  <int>
## 1     1       2419 PETR Engineering     2339  2057   282      0.121 110000
## 2     2       2416 MINI Engineering      756   679    77      0.102  75000
## 3     3       2415 META Engineering      856   725   131      0.153  73000
## 4     4       2417 NAVA Engineering     1258  1123   135      0.107  70000
## 5     5       2418 NUCL Engineering     2573  2200   373      0.145  65000
## 6     6       2405 CHEM Engineering    32260 21239 11021      0.342  65000

## # A tibble: 173 x 4
##    Major                                     Median P25th  P75th
##    <chr>                                      <int> <int>  <int>
##  1 PETROLEUM ENGINEERING                     110000 95000 125000
##  2 MINING AND MINERAL ENGINEERING             75000 55000  90000
##  3 METALLURGICAL ENGINEERING                  73000 50000 105000
##  4 NAVAL ARCHITECTURE AND MARINE ENGINEERING  70000 43000  80000
##  5 CHEMICAL ENGINEERING                       65000 50000  75000
##  6 NUCLEAR ENGINEERING                        65000 50000 102000
##  7 ACTUARIAL SCIENCE                          62000 53000  72000
##  8 ASTRONOMY AND ASTROPHYSICS                 62000 31500 109000
##  9 MECHANICAL ENGINEERING                     60000 48000  70000
## 10 ELECTRICAL ENGINEERING                     60000 45000  72000
## #  with 163 more rows
…
